report/Oscilloscope/20191210_0939/F0000CH1.CSV

Record Length,2.500000e+03,,   0.001467500000,   0.80000,
Sample Interval,1.000000e-08,,   0.001467510000,   0.80000,
Trigger Point,-1.467500000000e+05,,   0.001467520000,   0.80000,
,,,   0.001467530000,   0.80000,
,,,   0.001467540000,   0.80000,
,,,   0.001467550000,   0.80000,
Source,CH1,,   0.001467560000,   0.80000,
Vertical Units,V,,   0.001467570000,   0.80000,
Vertical Scale,1.000000e+01,,   0.001467580000,   0.80000,
Vertical Offset,-2.720000e+01,,   0.001467590000,   0.80000,
Horizontal Units,s,,   0.001467600000,   0.80000,
Horizontal Scale,2.500000e-06,,   0.001467610000,   0.80000,
Pt Fmt,Y,,   0.001467620000,   0.80000,
Yzero,0.000000e+00,,   0.001467630000,   0.80000,
Probe Atten,2.000000e+01,,   0.001467640000,   0.80000,
Firmware Version,FV:v10.21,,   0.001467650000,   0.80000,
,,,0.001467660000,   0.80000,
,,,0.001467670000,   0.80000,
,,,0.001467680000,   0.80000,
,,,0.001467690000,   0.80000,
,,,0.001467700000,   0.80000,
,,,0.001467710000,   0.80000,
,,,0.001467720000,   0.80000,
,,,0.001467730000,   0.80000,
,,,0.001467740000,   0.80000,
,,,0.001467750000,   0.80000,
,,,0.001467760000,   0.80000,
,,,0.001467770000,   0.80000,
,,,0.001467780000,   0.80000,
,,,0.001467790000,   0.80000,
,,,0.001467800000,   0.80000,
,,,0.001467810000,   0.80000,
,,,0.001467820000,   0.80000,
,,,0.001467830000,   0.80000,
,,,0.001467840000,   0.40000,
,,,0.001467850000,   0.80000,
,,,0.001467860000,   0.80000,
,,,0.001467870000,   0.80000,
,,,0.001467880000,   0.80000,
,,,0.001467890000,   0.80000,
,,,0.001467900000,   0.80000,
,,,0.001467910000,   0.80000,
,,,0.001467920000,   0.80000,
,,,0.001467930000,   0.40000,
,,,0.001467940000,   0.80000,
,,,0.001467950000,   0.80000,
,,,0.001467960000,   0.80000,
,,,0.001467970000,   0.80000,
,,,0.001467980000,   0.80000,
,,,0.001467990000,   0.80000,
,,,0.001468000000,   0.80000,
,,,0.001468010000,   0.80000,
,,,0.001468020000,   0.80000,
,,,0.001468030000,   0.80000,
,,,0.001468040000,   0.80000,
,,,0.001468050000,   0.80000,
,,,0.001468060000,   0.80000,
,,,0.001468070000,   0.80000,
,,,0.001468080000,   0.80000,
,,,0.001468090000,   0.40000,
,,,0.001468100000,   0.80000,
,,,0.001468110000,   0.80000,
,,,0.001468120000,   0.80000,
,,,0.001468130000,   0.80000,
,,,0.001468140000,   0.80000,
,,,0.001468150000,   0.80000,
,,,0.001468160000,   0.80000,
,,,0.001468170000,   1.60000,
,,,0.001468180000,   2.40000,
,,,0.001468190000,   2.40000,
,,,0.001468200000,   2.40000,
,,,0.001468210000,   2.40000,
,,,0.001468220000,   2.40000,
,,,0.001468230000,   2.40000,
,,,0.001468240000,   3.60000,
,,,0.001468250000,   4.80000,
,,,0.001468260000,   5.20000,
,,,0.001468270000,   7.20000,
,,,0.001468280000,   7.20000,
,,,0.001468290000,   7.20000,
,,,0.001468300000,   7.60000,
,,,0.001468310000,   9.20000,
,,,0.001468320000,   9.20000,
,,,0.001468330000,  10.00000,
,,,0.001468340000,  10.00000,
,,,0.001468350000,  11.20000,
,,,0.001468360000,  13.60000,
,,,0.001468370000,  14.40000,
,,,0.001468380000,  15.60000,
,,,0.001468390000,  16.00000,
,,,0.001468400000,  16.00000,
,,,0.001468410000,  16.00000,
,,,0.001468420000,  17.20000,
,,,0.001468430000,  17.60000,
,,,0.001468440000,  18.40000,
,,,0.001468450000,  19.60000,
,,,0.001468460000,  20.40000,
,,,0.001468470000,  21.20000,
,,,0.001468480000,  21.60000,
,,,0.001468490000,  21.20000,
,,,0.001468500000,  21.60000,
,,,0.001468510000,  22.00000,
,,,0.001468520000,  23.20000,
,,,0.001468530000,  23.20000,
,,,0.001468540000,  23.20000,
,,,0.001468550000,  24.00000,
,,,0.001468560000,  23.60000,
,,,0.001468570000,  23.60000,
,,,0.001468580000,  24.00000,
,,,0.001468590000,  24.40000,
,,,0.001468600000,  24.40000,
,,,0.001468610000,  24.40000,
,,,0.001468620000,  24.80000,
,,,0.001468630000,  24.40000,
,,,0.001468640000,  24.80000,
,,,0.001468650000,  24.40000,
,,,0.001468660000,  24.80000,
,,,0.001468670000,  24.40000,
,,,0.001468680000,  24.40000,
,,,0.001468690000,  24.80000,
,,,0.001468700000,  24.40000,
,,,0.001468710000,  24.40000,
,,,0.001468720000,  24.80000,
,,,0.001468730000,  24.80000,
,,,0.001468740000,  24.80000,
,,,0.001468750000,  24.40000,
,,,0.001468760000,  24.40000,
,,,0.001468770000,  24.40000,
,,,0.001468780000,  24.80000,
,,,0.001468790000,  24.80000,
,,,0.001468800000,  24.80000,
,,,0.001468810000,  24.80000,
,,,0.001468820000,  24.40000,
,,,0.001468830000,  24.40000,
,,,0.001468840000,  24.80000,
,,,0.001468850000,  24.80000,
,,,0.001468860000,  24.40000,
,,,0.001468870000,  24.40000,
,,,0.001468880000,  24.40000,
,,,0.001468890000,  24.80000,
,,,0.001468900000,  24.40000,
,,,0.001468910000,  24.80000,
,,,0.001468920000,  24.40000,
,,,0.001468930000,  24.80000,
,,,0.001468940000,  24.80000,
,,,0.001468950000,  24.40000,
,,,0.001468960000,  24.80000,
,,,0.001468970000,  24.40000,
,,,0.001468980000,  24.80000,
,,,0.001468990000,  24.40000,
,,,0.001469000000,  24.40000,
,,,0.001469010000,  24.40000,
,,,0.001469020000,  24.40000,
,,,0.001469030000,  24.80000,
,,,0.001469040000,  24.40000,
,,,0.001469050000,  24.40000,
,,,0.001469060000,  24.40000,
,,,0.001469070000,  24.40000,
,,,0.001469080000,  24.80000,
,,,0.001469090000,  24.40000,
,,,0.001469100000,  24.40000,
,,,0.001469110000,  24.40000,
,,,0.001469120000,  24.40000,
,,,0.001469130000,  24.40000,
,,,0.001469140000,  24.80000,
,,,0.001469150000,  24.40000,
,,,0.001469160000,  24.40000,
,,,0.001469170000,  24.40000,
,,,0.001469180000,  24.80000,
,,,0.001469190000,  24.80000,
,,,0.001469200000,  24.40000,
,,,0.001469210000,  24.80000,
,,,0.001469220000,  24.80000,
,,,0.001469230000,  24.80000,
,,,0.001469240000,  24.80000,
,,,0.001469250000,  24.40000,
,,,0.001469260000,  24.80000,
,,,0.001469270000,  24.80000,
,,,0.001469280000,  24.80000,
,,,0.001469290000,  24.80000,
,,,0.001469300000,  24.80000,
,,,0.001469310000,  24.80000,
,,,0.001469320000,  24.80000,
,,,0.001469330000,  24.80000,
,,,0.001469340000,  24.80000,
,,,0.001469350000,  24.80000,
,,,0.001469360000,  24.80000,
,,,0.001469370000,  24.80000,
,,,0.001469380000,  25.20000,
,,,0.001469390000,  25.20000,
,,,0.001469400000,  25.20000,
,,,0.001469410000,  25.20000,
,,,0.001469420000,  25.20000,
,,,0.001469430000,  25.20000,
,,,0.001469440000,  25.20000,
,,,0.001469450000,  25.20000,
,,,0.001469460000,  25.20000,
,,,0.001469470000,  25.20000,
,,,0.001469480000,  25.20000,
,,,0.001469490000,  25.20000,
,,,0.001469500000,  25.20000,
,,,0.001469510000,  25.60000,
,,,0.001469520000,  25.20000,
,,,0.001469530000,  25.20000,
,,,0.001469540000,  25.20000,
,,,0.001469550000,  25.20000,
,,,0.001469560000,  25.20000,
,,,0.001469570000,  25.20000,
,,,0.001469580000,  25.20000,
,,,0.001469590000,  25.60000,
,,,0.001469600000,  25.20000,
,,,0.001469610000,  25.60000,
,,,0.001469620000,  25.20000,
,,,0.001469630000,  25.20000,
,,,0.001469640000,  25.60000,
,,,0.001469650000,  25.20000,
,,,0.001469660000,  25.20000,
,,,0.001469670000,  25.20000,
,,,0.001469680000,  25.20000,
,,,0.001469690000,  25.20000,
,,,0.001469700000,  25.20000,
,,,0.001469710000,  25.60000,
,,,0.001469720000,  25.20000,
,,,0.001469730000,  25.20000,
,,,0.001469740000,  25.60000,
,,,0.001469750000,  25.60000,
,,,0.001469760000,  25.20000,
,,,0.001469770000,  25.20000,
,,,0.001469780000,  25.60000,
,,,0.001469790000,  25.60000,
,,,0.001469800000,  25.20000,
,,,0.001469810000,  25.20000,
,,,0.001469820000,  25.60000,
,,,0.001469830000,  25.20000,
,,,0.001469840000,  25.20000,
,,,0.001469850000,  25.20000,
,,,0.001469860000,  25.20000,
,,,0.001469870000,  25.20000,
,,,0.001469880000,  25.20000,
,,,0.001469890000,  25.20000,
,,,0.001469900000,  25.20000,
,,,0.001469910000,  25.20000,
,,,0.001469920000,  25.20000,
,,,0.001469930000,  25.20000,
,,,0.001469940000,  25.20000,
,,,0.001469950000,  25.20000,
,,,0.001469960000,  25.20000,
,,,0.001469970000,  25.20000,
,,,0.001469980000,  25.20000,
,,,0.001469990000,  25.20000,
,,,0.001470000000,  25.20000,
,,,0.001470010000,  25.20000,
,,,0.001470020000,  25.20000,
,,,0.001470030000,  25.20000,
,,,0.001470040000,  25.20000,
,,,0.001470050000,  25.20000,
,,,0.001470060000,  25.20000,
,,,0.001470070000,  25.20000,
,,,0.001470080000,  25.20000,
,,,0.001470090000,  25.20000,
,,,0.001470100000,  25.20000,
,,,0.001470110000,  25.20000,
,,,0.001470120000,  25.20000,
,,,0.001470130000,  25.20000,
,,,0.001470140000,  25.20000,
,,,0.001470150000,  25.20000,
,,,0.001470160000,  25.20000,
,,,0.001470170000,  25.20000,
,,,0.001470180000,  25.20000,
,,,0.001470190000,  25.20000,
,,,0.001470200000,  25.20000,
,,,0.001470210000,  25.20000,
,,,0.001470220000,  25.20000,
,,,0.001470230000,  25.20000,
,,,0.001470240000,  25.20000,
,,,0.001470250000,  25.20000,
,,,0.001470260000,  25.20000,
,,,0.001470270000,  25.20000,
,,,0.001470280000,  25.20000,
,,,0.001470290000,  25.20000,
,,,0.001470300000,  25.20000,
,,,0.001470310000,  25.20000,
,,,0.001470320000,  25.20000,
,,,0.001470330000,  25.20000,
,,,0.001470340000,  25.20000,
,,,0.001470350000,  25.20000,
,,,0.001470360000,  25.20000,
,,,0.001470370000,  25.20000,
,,,0.001470380000,  25.20000,
,,,0.001470390000,  25.20000,
,,,0.001470400000,  24.80000,
,,,0.001470410000,  24.80000,
,,,0.001470420000,  24.80000,
,,,0.001470430000,  24.80000,
,,,0.001470440000,  24.40000,
,,,0.001470450000,  24.40000,
,,,0.001470460000,  23.20000,
,,,0.001470470000,  22.80000,
,,,0.001470480000,  22.80000,
,,,0.001470490000,  22.40000,
,,,0.001470500000,  22.40000,
,,,0.001470510000,  22.40000,
,,,0.001470520000,  21.60000,
,,,0.001470530000,  20.00000,
,,,0.001470540000,  19.60000,
,,,0.001470550000,  19.20000,
,,,0.001470560000,  18.40000,
,,,0.001470570000,  17.60000,
,,,0.001470580000,  17.20000,
,,,0.001470590000,  16.00000,
,,,0.001470600000,  15.60000,
,,,0.001470610000,  14.80000,
,,,0.001470620000,  14.40000,
,,,0.001470630000,  14.00000,
,,,0.001470640000,  12.40000,
,,,0.001470650000,  11.60000,
,,,0.001470660000,  10.00000,
,,,0.001470670000,   9.20000,
,,,0.001470680000,   8.80000,
,,,0.001470690000,   8.80000,
,,,0.001470700000,   8.40000,
,,,0.001470710000,   7.20000,
,,,0.001470720000,   6.80000,
,,,0.001470730000,   5.20000,
,,,0.001470740000,   5.20000,
,,,0.001470750000,   4.00000,
,,,0.001470760000,   3.60000,
,,,0.001470770000,   3.60000,
,,,0.001470780000,   3.60000,
,,,0.001470790000,   3.20000,
,,,0.001470800000,   2.40000,
,,,0.001470810000,   2.00000,
,,,0.001470820000,   1.60000,
,,,0.001470830000,   1.60000,
,,,0.001470840000,   1.60000,
,,,0.001470850000,   1.20000,
,,,0.001470860000,   1.20000,
,,,0.001470870000,   0.80000,
,,,0.001470880000,   1.20000,
,,,0.001470890000,   0.80000,
,,,0.001470900000,   0.80000,
,,,0.001470910000,   0.80000,
,,,0.001470920000,   0.80000,
,,,0.001470930000,   0.80000,
,,,0.001470940000,   0.40000,
,,,0.001470950000,   0.80000,
,,,0.001470960000,   0.80000,
,,,0.001470970000,   0.80000,
,,,0.001470980000,   0.80000,
,,,0.001470990000,   0.80000,
,,,0.001471000000,   0.80000,
,,,0.001471010000,   0.40000,
,,,0.001471020000,   0.80000,
,,,0.001471030000,   0.80000,
,,,0.001471040000,   0.80000,
,,,0.001471050000,   0.80000,
,,,0.001471060000,   0.40000,
,,,0.001471070000,   0.80000,
,,,0.001471080000,   0.80000,
,,,0.001471090000,   0.80000,
,,,0.001471100000,   0.40000,
,,,0.001471110000,   0.80000,
,,,0.001471120000,   0.80000,
,,,0.001471130000,   0.40000,
,,,0.001471140000,   0.80000,
,,,0.001471150000,   0.40000,
,,,0.001471160000,   0.40000,
,,,0.001471170000,   0.80000,
,,,0.001471180000,   0.80000,
,,,0.001471190000,   0.80000,
,,,0.001471200000,   0.40000,
,,,0.001471210000,   0.80000,
,,,0.001471220000,   0.40000,
,,,0.001471230000,   0.40000,
,,,0.001471240000,   0.80000,
,,,0.001471250000,   0.40000,
,,,0.001471260000,   0.40000,
,,,0.001471270000,   0.80000,
,,,0.001471280000,   0.80000,
,,,0.001471290000,   0.80000,
,,,0.001471300000,   0.80000,
,,,0.001471310000,   0.80000,
,,,0.001471320000,   0.40000,
,,,0.001471330000,   0.80000,
,,,0.001471340000,   0.40000,
,,,0.001471350000,   0.80000,
,,,0.001471360000,   0.80000,
,,,0.001471370000,   0.80000,
,,,0.001471380000,   0.80000,
,,,0.001471390000,   0.80000,
,,,0.001471400000,   0.80000,
,,,0.001471410000,   0.80000,
,,,0.001471420000,   0.80000,
,,,0.001471430000,   0.40000,
,,,0.001471440000,   0.80000,
,,,0.001471450000,   0.80000,
,,,0.001471460000,   0.80000,
,,,0.001471470000,   0.80000,
,,,0.001471480000,   0.80000,
,,,0.001471490000,   0.80000,
,,,0.001471500000,   0.80000,
,,,0.001471510000,   0.80000,
,,,0.001471520000,   0.80000,
,,,0.001471530000,   0.80000,
,,,0.001471540000,   0.80000,
,,,0.001471550000,   0.80000,
,,,0.001471560000,   0.80000,
,,,0.001471570000,   0.40000,
,,,0.001471580000,   0.80000,
,,,0.001471590000,   0.80000,
,,,0.001471600000,   0.80000,
,,,0.001471610000,   0.80000,
,,,0.001471620000,   0.80000,
,,,0.001471630000,   0.80000,
,,,0.001471640000,   0.40000,
,,,0.001471650000,   0.80000,
,,,0.001471660000,   0.80000,
,,,0.001471670000,   0.80000,
,,,0.001471680000,   0.40000,
,,,0.001471690000,   0.80000,
,,,0.001471700000,   0.80000,
,,,0.001471710000,   0.80000,
,,,0.001471720000,   0.40000,
,,,0.001471730000,   0.80000,
,,,0.001471740000,   0.80000,
,,,0.001471750000,   0.80000,
,,,0.001471760000,   0.40000,
,,,0.001471770000,   0.80000,
,,,0.001471780000,   0.80000,
,,,0.001471790000,   0.80000,
,,,0.001471800000,   0.80000,
,,,0.001471810000,   0.40000,
,,,0.001471820000,   0.80000,
,,,0.001471830000,   0.80000,
,,,0.001471840000,   0.40000,
,,,0.001471850000,   0.80000,
,,,0.001471860000,   0.80000,
,,,0.001471870000,   0.80000,
,,,0.001471880000,   0.80000,
,,,0.001471890000,   0.80000,
,,,0.001471900000,   0.80000,
,,,0.001471910000,   0.80000,
,,,0.001471920000,   1.20000,
,,,0.001471930000,   2.40000,
,,,0.001471940000,   2.40000,
,,,0.001471950000,   2.40000,
,,,0.001471960000,   2.40000,
,,,0.001471970000,   2.40000,
,,,0.001471980000,   3.60000,
,,,0.001471990000,   4.40000,
,,,0.001472000000,   4.80000,
,,,0.001472010000,   5.20000,
,,,0.001472020000,   6.40000,
,,,0.001472030000,   7.20000,
,,,0.001472040000,   7.60000,
,,,0.001472050000,   8.80000,
,,,0.001472060000,   9.60000,
,,,0.001472070000,   9.60000,
,,,0.001472080000,  10.00000,
,,,0.001472090000,  10.80000,
,,,0.001472100000,  12.00000,
,,,0.001472110000,  13.20000,
,,,0.001472120000,  14.80000,
,,,0.001472130000,  16.00000,
,,,0.001472140000,  15.60000,
,,,0.001472150000,  16.00000,
,,,0.001472160000,  16.80000,
,,,0.001472170000,  17.20000,
,,,0.001472180000,  17.60000,
,,,0.001472190000,  19.20000,
,,,0.001472200000,  19.60000,
,,,0.001472210000,  20.80000,
,,,0.001472220000,  21.20000,
,,,0.001472230000,  21.20000,
,,,0.001472240000,  21.60000,
,,,0.001472250000,  21.60000,
,,,0.001472260000,  22.40000,
,,,0.001472270000,  22.80000,
,,,0.001472280000,  23.60000,
,,,0.001472290000,  23.20000,
,,,0.001472300000,  23.60000,
,,,0.001472310000,  23.60000,
,,,0.001472320000,  24.00000,
,,,0.001472330000,  24.40000,
,,,0.001472340000,  24.40000,
,,,0.001472350000,  24.40000,
,,,0.001472360000,  24.40000,
,,,0.001472370000,  24.40000,
,,,0.001472380000,  24.40000,
,,,0.001472390000,  24.80000,
,,,0.001472400000,  24.40000,
,,,0.001472410000,  24.40000,
,,,0.001472420000,  24.40000,
,,,0.001472430000,  24.40000,
,,,0.001472440000,  24.40000,
,,,0.001472450000,  24.40000,
,,,0.001472460000,  24.80000,
,,,0.001472470000,  24.40000,
,,,0.001472480000,  24.40000,
,,,0.001472490000,  24.40000,
,,,0.001472500000,  24.40000,
,,,0.001472510000,  24.80000,
,,,0.001472520000,  24.40000,
,,,0.001472530000,  24.40000,
,,,0.001472540000,  24.40000,
,,,0.001472550000,  24.40000,
,,,0.001472560000,  24.80000,
,,,0.001472570000,  24.40000,
,,,0.001472580000,  24.40000,
,,,0.001472590000,  24.40000,
,,,0.001472600000,  24.80000,
,,,0.001472610000,  24.40000,
,,,0.001472620000,  24.40000,
,,,0.001472630000,  24.40000,
,,,0.001472640000,  24.40000,
,,,0.001472650000,  24.80000,
,,,0.001472660000,  24.40000,
,,,0.001472670000,  24.80000,
,,,0.001472680000,  24.80000,
,,,0.001472690000,  24.40000,
,,,0.001472700000,  24.40000,
,,,0.001472710000,  24.40000,
,,,0.001472720000,  24.80000,
,,,0.001472730000,  24.40000,
,,,0.001472740000,  24.80000,
,,,0.001472750000,  24.80000,
,,,0.001472760000,  24.80000,
,,,0.001472770000,  24.40000,
,,,0.001472780000,  24.40000,
,,,0.001472790000,  24.40000,
,,,0.001472800000,  24.40000,
,,,0.001472810000,  24.40000,
,,,0.001472820000,  24.80000,
,,,0.001472830000,  24.40000,
,,,0.001472840000,  24.80000,
,,,0.001472850000,  24.40000,
,,,0.001472860000,  24.80000,
,,,0.001472870000,  24.80000,
,,,0.001472880000,  24.40000,
,,,0.001472890000,  24.40000,
,,,0.001472900000,  24.40000,
,,,0.001472910000,  24.40000,
,,,0.001472920000,  24.40000,
,,,0.001472930000,  24.80000,
,,,0.001472940000,  24.80000,
,,,0.001472950000,  24.40000,
,,,0.001472960000,  24.40000,
,,,0.001472970000,  24.40000,
,,,0.001472980000,  24.80000,
,,,0.001472990000,  24.80000,
,,,0.001473000000,  24.40000,
,,,0.001473010000,  24.80000,
,,,0.001473020000,  24.80000,
,,,0.001473030000,  24.80000,
,,,0.001473040000,  24.80000,
,,,0.001473050000,  24.80000,
,,,0.001473060000,  24.80000,
,,,0.001473070000,  24.80000,
,,,0.001473080000,  24.80000,
,,,0.001473090000,  24.80000,
,,,0.001473100000,  24.80000,
,,,0.001473110000,  24.80000,
,,,0.001473120000,  24.80000,
,,,0.001473130000,  25.20000,
,,,0.001473140000,  25.20000,
,,,0.001473150000,  25.20000,
,,,0.001473160000,  25.20000,
,,,0.001473170000,  25.20000,
,,,0.001473180000,  25.20000,
,,,0.001473190000,  25.20000,
,,,0.001473200000,  25.20000,
,,,0.001473210000,  25.20000,
,,,0.001473220000,  25.20000,
,,,0.001473230000,  25.20000,
,,,0.001473240000,  25.20000,
,,,0.001473250000,  25.20000,
,,,0.001473260000,  25.20000,
,,,0.001473270000,  25.20000,
,,,0.001473280000,  25.20000,
,,,0.001473290000,  25.20000,
,,,0.001473300000,  25.20000,
,,,0.001473310000,  25.20000,
,,,0.001473320000,  25.20000,
,,,0.001473330000,  25.60000,
,,,0.001473340000,  25.20000,
,,,0.001473350000,  25.20000,
,,,0.001473360000,  25.20000,
,,,0.001473370000,  25.20000,
,,,0.001473380000,  25.20000,
,,,0.001473390000,  25.20000,
,,,0.001473400000,  25.20000,
,,,0.001473410000,  25.20000,
,,,0.001473420000,  25.20000,
,,,0.001473430000,  25.60000,
,,,0.001473440000,  25.20000,
,,,0.001473450000,  25.20000,
,,,0.001473460000,  25.20000,
,,,0.001473470000,  25.60000,
,,,0.001473480000,  25.20000,
,,,0.001473490000,  25.20000,
,,,0.001473500000,  25.20000,
,,,0.001473510000,  25.20000,
,,,0.001473520000,  25.20000,
,,,0.001473530000,  25.20000,
,,,0.001473540000,  25.20000,
,,,0.001473550000,  25.20000,
,,,0.001473560000,  25.20000,
,,,0.001473570000,  25.60000,
,,,0.001473580000,  25.20000,
,,,0.001473590000,  25.60000,
,,,0.001473600000,  25.20000,
,,,0.001473610000,  25.20000,
,,,0.001473620000,  25.20000,
,,,0.001473630000,  25.20000,
,,,0.001473640000,  25.20000,
,,,0.001473650000,  25.20000,
,,,0.001473660000,  25.20000,
,,,0.001473670000,  25.20000,
,,,0.001473680000,  25.20000,
,,,0.001473690000,  25.60000,
,,,0.001473700000,  25.20000,
,,,0.001473710000,  25.20000,
,,,0.001473720000,  25.20000,
,,,0.001473730000,  25.20000,
,,,0.001473740000,  25.60000,
,,,0.001473750000,  25.20000,
,,,0.001473760000,  25.20000,
,,,0.001473770000,  25.20000,
,,,0.001473780000,  25.20000,
,,,0.001473790000,  25.20000,
,,,0.001473800000,  25.20000,
,,,0.001473810000,  25.20000,
,,,0.001473820000,  25.20000,
,,,0.001473830000,  25.20000,
,,,0.001473840000,  25.20000,
,,,0.001473850000,  25.20000,
,,,0.001473860000,  25.20000,
,,,0.001473870000,  25.20000,
,,,0.001473880000,  25.20000,
,,,0.001473890000,  25.20000,
,,,0.001473900000,  25.20000,
,,,0.001473910000,  25.20000,
,,,0.001473920000,  25.20000,
,,,0.001473930000,  25.20000,
,,,0.001473940000,  25.20000,
,,,0.001473950000,  25.20000,
,,,0.001473960000,  25.20000,
,,,0.001473970000,  25.20000,
,,,0.001473980000,  25.20000,
,,,0.001473990000,  25.20000,
,,,0.001474000000,  25.20000,
,,,0.001474010000,  25.20000,
,,,0.001474020000,  25.20000,
,,,0.001474030000,  25.20000,
,,,0.001474040000,  25.20000,
